hw4/HW4.log
# Loading work.TB(fast)
# do run.do 
# 
# 
# 
# 		===========================================
# 		=  Testing all paths through the machine  =
# 		===========================================
# 
# 		Input vector & timing for this test
# 		10 10 10 10 RANDOM INPUT DELAY
# 		Ticket cost = 40
# 		===========================================
# 		| time   10  20  TDBR    PS    NS   total |
# 		===========================================
# 		|   40    0   0  0001   0001  0001     0  |
# 		|  115    1   0  0001   0001  0001     0  |
# 		|  120    1   0  0001   0001  0010    10  |
# 		|  125    0   0  0001   0001  0010    10  |
# 		|  130    0   0  0010   0010  0010    10  |
# 		|  175    1   0  0010   0010  0010    10  |
# 		|  180    1   0  0010   0010  0010    20  |
# 		|  185    0   0  0010   0010  0010    20  |
# 		|  225    1   0  0010   0010  0010    20  |
# 		|  230    1   0  0010   0010  0010    30  |
# 		|  235    0   0  0010   0010  0010    30  |
# 		|  335    1   0  0010   0010  0010    30  |
# 		|  340    1   0  0010   0010  0100    40  |
# 		|  345    0   0  0010   0010  0100    40  |
# 		|  350    0   0  0100   0100  0001     0  |
# 		|  360    0   0  0001   0001  0001     0  |
# 		|=========== system was reset ============|
# 		|     Never got into RETURNTEN state      |
# 		===========================================
# 
# 
# 		Input vector & timing for this test
# 		10 10 10 20 RANDOM INPUT DELAY
# 		Ticket cost = 40
# 		===========================================
# 		| time   10  20  TDBR    PS    NS   total |
# 		===========================================
# 		|  435    1   0  0001   0001  0001     0  |
# 		|  440    1   0  0001   0001  0010    10  |
# 		|  450    1   0  0010   0010  0010    20  |
# 		|  455    0   0  0010   0010  0010    20  |
# 		|  515    1   0  0010   0010  0010    20  |
# 		|  520    1   0  0010   0010  0010    30  |
# 		|  525    0   1  0010   0010  0010    30  |
# 		|  530    0   1  0010   0010  1000    50  |
# 		|  535    0   0  0010   0010  1000    50  |
# 		|  540    0   0  1000   1000  0100    50  |
# 		|  550    0   0  0100   0100  0001     0  |
# 		|  560    0   0  0001   0001  0001     0  |
# 		|=========== system was reset ============|
# 		|        All states were entered          |
# 		===========================================
# 
# 
# 		Input vector & timing for this test
# 		10 10 20 RANDOM INPUT DELAY
# 		Ticket cost = 40
# 		===========================================
# 		| time   10  20  TDBR    PS    NS   total |
# 		===========================================
# 		|  665    1   0  0001   0001  0001     0  |
# 		|  670    1   0  0001   0001  0010    10  |
# 		|  675    0   0  0001   0001  0010    10  |
# 		|  680    0   0  0010   0010  0010    10  |
# 		|  725    1   0  0010   0010  0010    10  |
# 		|  730    1   0  0010   0010  0010    20  |
# 		|  735    0   0  0010   0010  0010    20  |
# 		|  785    0   1  0010   0010  0010    20  |
# 		|  790    0   1  0010   0010  0100    40  |
# 		|  795    0   0  0010   0010  0100    40  |
# 		|  800    0   0  0100   0100  0001     0  |
# 		|  810    0   0  0001   0001  0001     0  |
# 		|=========== system was reset ============|
# 		|     Never got into RETURNTEN state      |
# 		===========================================
# 
# 
# 		Input vector & timing for this test
# 		10 20 10 RANDOM INPUT DELAY
# 		Ticket cost = 40
# 		===========================================
# 		| time   10  20  TDBR    PS    NS   total |
# 		===========================================
# 		|  875    1   0  0001   0001  0001     0  |
# 		|  880    1   0  0001   0001  0010    10  |
# 		|  885    0   0  0001   0001  0010    10  |
# 		|  890    0   0  0010   0010  0010    10  |
# 		|  905    0   1  0010   0010  0010    10  |
# 		|  910    0   1  0010   0010  0010    30  |
# 		|  915    0   0  0010   0010  0010    30  |
# 		|  945    1   0  0010   0010  0010    30  |
# 		|  950    1   0  0010   0010  0100    40  |
# 		|  955    0   0  0010   0010  0100    40  |
# 		|  960    0   0  0100   0100  0001     0  |
# 		|  970    0   0  0001   0001  0001     0  |
# 		|=========== system was reset ============|
# 		|     Never got into RETURNTEN state      |
# 		===========================================
# 
# 
# 		Input vector & timing for this test
# 		10 20 20 RANDOM INPUT DELAY
# 		Ticket cost = 40
# 		===========================================
# 		| time   10  20  TDBR    PS    NS   total |
# 		===========================================
# 		| 1005    1   0  0001   0001  0001     0  |
# 		| 1010    1   0  0001   0001  0010    10  |
# 		| 1015    0   0  0001   0001  0010    10  |
# 		| 1020    0   0  0010   0010  0010    10  |
# 		| 1065    0   1  0010   0010  0010    10  |
# 		| 1070    0   1  0010   0010  0010    30  |
# 		| 1075    0   0  0010   0010  0010    30  |
# 		| 1175    0   1  0010   0010  0010    30  |
# 		| 1180    0   1  0010   0010  1000    50  |
# 		| 1185    0   0  0010   0010  1000    50  |
# 		| 1190    0   0  1000   1000  0100    50  |
# 		| 1200    0   0  0100   0100  0001     0  |
# 		| 1210    0   0  0001   0001  0001     0  |
# 		|=========== system was reset ============|
# 		|        All states were entered          |
# 		===========================================
# 
# 
# 		Input vector & timing for this test
# 		20 10 10 RANDOM INPUT DELAY
# 		Ticket cost = 40
# 		===========================================
# 		| time   10  20  TDBR    PS    NS   total |
# 		===========================================
# 		| 1255    0   1  0001   0001  0001     0  |
# 		| 1260    0   1  0001   0001  0010    20  |
# 		| 1265    0   0  0001   0001  0010    20  |
# 		| 1270    0   0  0010   0010  0010    20  |
# 		| 1365    1   0  0010   0010  0010    20  |
# 		| 1370    1   0  0010   0010  0010    30  |
# 		| 1375    0   0  0010   0010  0010    30  |
# 		| 1445    1   0  0010   0010  0010    30  |
# 		| 1450    1   0  0010   0010  0100    40  |
# 		| 1455    0   0  0010   0010  0100    40  |
# 		| 1460    0   0  0100   0100  0001     0  |
# 		| 1470    0   0  0001   0001  0001     0  |
# 		|=========== system was reset ============|
# 		|     Never got into RETURNTEN state      |
# 		===========================================
# 
# 
# 		Input vector & timing for this test
# 		20 10 20 RANDOM INPUT DELAY
# 		Ticket cost = 40
# 		===========================================
# 		| time   10  20  TDBR    PS    NS   total |
# 		===========================================
# 		| 1505    0   1  0001   0001  0001     0  |
# 		| 1510    0   1  0001   0001  0010    20  |
# 		| 1515    0   0  0001   0001  0010    20  |
# 		| 1520    0   0  0010   0010  0010    20  |
# 		| 1585    1   0  0010   0010  0010    20  |
# 		| 1590    1   0  0010   0010  0010    30  |
# 		| 1595    0   0  0010   0010  0010    30  |
# 		| 1655    0   1  0010   0010  0010    30  |
# 		| 1660    0   1  0010   0010  1000    50  |
# 		| 1665    0   0  0010   0010  1000    50  |
# 		| 1670    0   0  1000   1000  0100    50  |
# 		| 1680    0   0  0100   0100  0001     0  |
# 		| 1690    0   0  0001   0001  0001     0  |
# 		|=========== system was reset ============|
# 		|        All states were entered          |
# 		===========================================
# 
# 
# 		Input vector & timing for this test
# 		20 20 RANDOM INPUT DELAY
# 		Ticket cost = 40
# 		===========================================
# 		| time   10  20  TDBR    PS    NS   total |
# 		===========================================
# 		| 1765    0   1  0001   0001  0001     0  |
# 		| 1770    0   1  0001   0001  0010    20  |
# 		| 1775    0   0  0001   0001  0010    20  |
# 		| 1780    0   0  0010   0010  0010    20  |
# 		| 1835    0   1  0010   0010  0010    20  |
# 		| 1840    0   1  0010   0010  0100    40  |
# 		| 1845    0   0  0010   0010  0100    40  |
# 		| 1850    0   0  0100   0100  0001     0  |
# 		| 1860    0   0  0001   0001  0001     0  |
# 		|=========== system was reset ============|
# 		|     Never got into RETURNTEN state      |
# 		===========================================
# 
# 
# 
# 
# 
# 	  =======================================================
# 	  =  Testing all paths across ticket dispense boundary  =
# 	  =======================================================
# 		Input vector & timing for this test
# 		10 10 20|20 10 10|10 10 10 10|20 20|10 20 10|
# 		10 10 10 20|20 10 20|10 20 10
# 		NO INPUT DELAY
# 		Ticket cost = 40
# 		===========================================
# 		| time   10  20  TDBR    PS    NS   total |
# 		===========================================
# 		| 1885    1   0  0001   0001  0001     0  |
# 		| 1890    1   0  0001   0001  0010    10  |
# 		| 1895    0   0  0001   0001  0010    10  |
# 		| 1900    0   0  0010   0010  0010    10  |
# 		| 1905    1   0  0010   0010  0010    10  |
# 		| 1910    1   0  0010   0010  0010    20  |
# 		| 1915    0   0  0010   0010  0010    20  |
# 		| 1925    0   1  0010   0010  0010    20  |
# 		| 1930    0   1  0010   0010  0100    40  |
# 		| 1935    0   0  0010   0010  0100    40  |
# 		| 1940    0   0  0100   0100  0001     0  |
# 		| 1945    0   1  0100   0100  0001     0  |
# 		| 1950    0   1  0001   0001  0010    20  |
# 		| 1955    0   0  0001   0001  0010    20  |
# 		| 1960    0   0  0010   0010  0010    20  |
# 		| 1965    1   0  0010   0010  0010    20  |
# 		| 1970    1   0  0010   0010  0010    30  |
# 		| 1975    0   0  0010   0010  0010    30  |
# 		| 1985    1   0  0010   0010  0010    30  |
# 		| 1990    1   0  0010   0010  0100    40  |
# 		| 1995    0   0  0010   0010  0100    40  |
# 		| 2000    0   0  0100   0100  0001     0  |
# 		| 2005    1   0  0100   0100  0001     0  |
# 		| 2010    1   0  0001   0001  0010    10  |
# 		| 2015    0   0  0001   0001  0010    10  |
# 		| 2020    0   0  0010   0010  0010    10  |
# 		| 2025    1   0  0010   0010  0010    10  |
# 		| 2030    1   0  0010   0010  0010    20  |
# 		| 2035    0   0  0010   0010  0010    20  |
# 		| 2045    1   0  0010   0010  0010    20  |
# 		| 2050    1   0  0010   0010  0010    30  |
# 		| 2055    0   0  0010   0010  0010    30  |
# 		| 2065    1   0  0010   0010  0010    30  |
# 		| 2070    1   0  0010   0010  0100    40  |
# 		| 2075    0   0  0010   0010  0100    40  |
# 		| 2080    0   0  0100   0100  0001     0  |
# 		| 2085    0   1  0100   0100  0001     0  |
# 		| 2090    0   1  0001   0001  0010    20  |
# 		| 2095    0   0  0001   0001  0010    20  |
# 		| 2100    0   0  0010   0010  0010    20  |
# 		| 2105    0   1  0010   0010  0010    20  |
# 		| 2110    0   1  0010   0010  0100    40  |
# 		| 2115    0   0  0010   0010  0100    40  |
# 		| 2120    0   0  0100   0100  0001     0  |
# 		| 2125    1   0  0100   0100  0001     0  |
# 		| 2130    1   0  0001   0001  0010    10  |
# 		| 2135    0   0  0001   0001  0010    10  |
# 		| 2140    0   0  0010   0010  0010    10  |
# 		| 2145    0   1  0010   0010  0010    10  |
# 		| 2150    0   1  0010   0010  0010    30  |
# 		| 2155    0   0  0010   0010  0010    30  |
# 		| 2165    1   0  0010   0010  0010    30  |
# 		| 2170    1   0  0010   0010  0100    40  |
# 		| 2175    0   0  0010   0010  0100    40  |
# 		| 2180    0   0  0100   0100  0001     0  |
# 		| 2185    1   0  0100   0100  0001     0  |
# 		| 2190    1   0  0001   0001  0010    10  |
# 		| 2195    0   0  0001   0001  0010    10  |
# 		| 2200    0   0  0010   0010  0010    10  |
# 		| 2205    1   0  0010   0010  0010    10  |
# 		| 2210    1   0  0010   0010  0010    20  |
# 		| 2215    0   0  0010   0010  0010    20  |
# 		| 2225    1   0  0010   0010  0010    20  |
# 		| 2230    1   0  0010   0010  0010    30  |
# 		| 2235    0   0  0010   0010  0010    30  |
# 		| 2245    0   1  0010   0010  0010    30  |
# 		| 2250    0   1  0010   0010  1000    50  |
# 		| 2255    0   0  0010   0010  1000    50  |
# 		| 2260    0   0  1000   1000  0100    50  |
# 		| 2265    0   1  1000   1000  0100    50  |
# 		| 2270    0   1  0100   0100  0001     0  |
# 		| 2275    0   0  0100   0100  0001     0  |
# 		| 2280    0   0  0001   0001  0001     0  |
# 		| 2285    1   0  0001   0001  0001     0  |
# 		| 2290    1   0  0001   0001  0010    10  |
# 		| 2295    0   0  0001   0001  0010    10  |
# 		| 2300    0   0  0010   0010  0010    10  |
# 		| 2305    0   1  0010   0010  0010    10  |
# 		| 2310    0   1  0010   0010  0010    30  |
# 		| 2315    0   0  0010   0010  0010    30  |
# 		| 2325    1   0  0010   0010  0010    30  |
# 		| 2330    1   0  0010   0010  0100    40  |
# 		| 2335    0   0  0010   0010  0100    40  |
# 		| 2340    0   0  0100   0100  0001     0  |
# 		| 2345    0   1  0100   0100  0001     0  |
# 		| 2350    0   1  0001   0001  0010    20  |
# 		| 2355    0   0  0001   0001  0010    20  |
# 		| 2360    0   0  0010   0010  0010    20  |
# 		| 2365    1   0  0010   0010  0010    20  |
# 		| 2370    1   0  0010   0010  0010    30  |
# 		| 2375    0   0  0010   0010  0010    30  |
# 		| 2405    0   0  0001   0001  0001     0  |
# 		|=========== system was reset ============|
# 		|        All states were entered          |
# 		===========================================
# 
# 
# ** Note: $finish    : hdl/hw4_TB.sv(153)
#    Time: 2415 ns  Iteration: 0  Instance: /TB
